{
  "19": [
    {
      "value": "Purchase",
      "name": "Purchase"
    },
    {
      "value": "Cash-Out Refinance",
      "name": "Cash-Out Refi"
    },
    {
      "value": "NoCash-Out Refinance",
      "name": "No Cash-Out Refi"
    },
    {
      "value": "ConstructionToPermanent",
      "name": "Construction - Perm"
    },
    {
      "value": "ConstructionOnly",
      "name": "Construction"
    }
  ],
  "VAVOB.X72": [
    {
      "value": "Regular Military",
      "name": "Regular Military"
    },
    {
      "value": "Reserves",
      "name": "Reserves"
    },
    {
      "value": "National Guard",
      "name": "National Guard"
    }
  ],
  "1172": [
    {
      "value": "Conventional",
      "name": "Conventional"
    },
    {
      "value": "VA",
      "name": "VA"
    },
    {
      "value": "FHA",
      "name": "FHA"
    },
    {
      "value": "Other",
      "name": "Other"
    },
    {
      "value": "FarmersHomeAdministration",
      "name": "USDA-RHS"
    },
    {
      "value": "HELOC",
      "name": "HELOC"
    }
  ],
  "299": [
    {
      "value": "None",
      "name": "None"
    },
    {
      "value": "CashOutDebtConsolidation",
      "name": "Cash-Out Debt Consolidation"
    },
    {
      "value": "CashOutHomeImprovement",
      "name": "Cash-Out Home Improvement"
    },
    {
      "value": "CashOutLimited",
      "name": "Cash-Out Limited"
    },
    {
      "value": "CashOutOther",
      "name": "Cash-Out Other"
    },
    {
      "value": "CashOutOriginalLender",
      "name": "Cash-Out With Original Lender"
    },
    {
      "value": "ChangeInRateTerm",
      "name": "No Cash-Out Rate/Term"
    },
    {
      "value": "NoCashOutOther",
      "name": "No Cash-Out Other"
    },
    {
      "value": "NoCashOutFHAStreamlinedRefinance",
      "name": "No Cash-Out FHA Streamlined"
    },
    {
      "value": "NoCashOutFREOwnedRefinance",
      "name": "No Cash-Out Freddie Owned"
    },
    {
      "value": "NoCashOutStreamlinedRefinance",
      "name": "No Cash-Out Streamlined"
    },
    {
      "value": "NoCashOutOriginalLender",
      "name": "No Cash-Out With Original Lender"
    }
  ],
  "1041": [
    {
      "value": "Attached",
      "name": "Attached"
    },
    {
      "value": "Condominium",
      "name": "Condominium"
    },
    {
      "value": "Cooperative",
      "name": "Co-Operative"
    },
    {
      "value": "Detached",
      "name": "Detached"
    },
    {
      "value": "HighRiseCondominium",
      "name": "High Rise Condominium"
    },
    {
      "value": "ManufacturedHousing",
      "name": "Manufactured Housing"
    },
    {
      "value": "PUD",
      "name": "PUD"
    },
    {
      "value": "DetachedCondo",
      "name": "Detached Condo"
    },
    {
      "value": "ManufacturedHomeCondoPUDCoOp",
      "name": "Mfd Home/Condo/PUD/Co-Op"
    },
    {
      "value": "MHSelect",
      "name": "MH Select"
    }
  ]
}
