<svg id="Layer_1" xmlns="http://www.w3.org/2000/svg" width="28" height="28" viewBox="0 0 28 28">
    <title>enc-logo-color</title>
    <style>.st0{fill:#fff}.st1{fill:#408a90}.st2{fill:#00acdc}.st3{fill:#f7911e}.st4{fill:#0067ab}</style>
    <g id="Page-1_2_">
        <g id="brand-assets" transform="translate(-107 -187)">
            <g id="logo-enc-em-inline-dark" transform="translate(107 187)">
                <g id="Group-3">
                    <g id="Page-1">
                        <path id="Fill-1" class="st0" d="M28 14c0 7.7-6.3 14-14 14S0 21.7 0 14 6.3 0 14 0s14 6.3 14 14"/>
                        <path id="Fill-3" class="st1" d="M14.1 2.3v-.5H14C7.2 1.8 1.8 7.3 1.8 14h.6c6.5.1 11.7-5.2 11.7-11.7"/>
                        <path id="Fill-5" class="st2" d="M2.3 14.1h-.6c.1 6.7 5.5 12.2 12.2 12.2h.1v-.4c.1-6.5-5.1-11.8-11.7-11.8"/>
                        <path id="Fill-7" class="st3" d="M25.9 14.1h.3V14c0-6.7-5.4-12.2-12.1-12.2v.5c0 6.5 5.3 11.8 11.8 11.8"/>
                        <path id="Fill-9" class="st4" d="M14.1 25.9v.4c6.7-.1 12-5.5 12.1-12.2h-.3c-6.5 0-11.8 5.3-11.8 11.8"/>
                    </g>
                </g>
            </g>
        </g>
    </g>
</svg>
